0, 103 kickdrum 0.251969 0.958 0.261 0.395 0.68 0.4 0.104 0.411 0.927
0.482 0.472 0.825 0.291339;
1, 103 kickdrum 0.251969 0.958 0.261 0.395 0.68 0.4 0.104 0.411 0.927
0.482 0.472 0.825 0.291339;
2, 103 cymbal2 0.541 0.492 0.546 0.447 0.8 0.254 0.608 0.914 0.39
0.79 0.043 0.411 0.259843;
3, 103 twonk 0.201 0.2 0.704 0.96 0.329 0.361 0.397 0.107 0.542 0.325
0.727 0.864 0.259843;
4, 103 kickdrum 0.251969 0.958 0.261 0.395 0.68 0.4 0.104 0.411 0.927
0.482 0.472 0.825 0.291339;
5, 103 stringknock 0.0708661 0.578 0.058 0.108 0.899 0.992 0.897 0.303
0.799 0.329 0.556 0.617 0.251969;
6, 103 metaledge 0.0944882 0.175 0.022 0.392 0.503 0.738 0.994 0.621
0.796 0.37 0.74 0.627 0.251969;
7, 103 kickdrum 0.251969 0.958 0.261 0.395 0.68 0.4 0.104 0.411 0.927
0.482 0.472 0.825 0.291339;
8, 103 kickdrum 0.251969 0.958 0.261 0.395 0.68 0.4 0.104 0.411 0.927
0.482 0.472 0.825 0.291339;
9, 103 kickdrum 0.251969 0.958 0.261 0.395 0.68 0.4 0.104 0.411 0.927
0.482 0.472 0.825 0.291339;
10, 103 kickdrum 0.251969 0.958 0.261 0.395 0.68 0.4 0.104 0.411 0.927
0.482 0.472 0.825 0.291339;
11, 103 kickdrum 0.251969 0.958 0.261 0.395 0.68 0.4 0.104 0.411 0.927
0.482 0.472 0.825 0.291339;
12, 0 blip 0.1 0.167979 0.0629787 0.0390109 0.335932 0.890208 0.383051
0.622034 0.287966 0.862034 0.554068 0.0930508 0 0.75;
13, 103 kickdrum 0.251969 0.958 0.261 0.395 0.68 0.4 0.104 0.411 0.927
0.482 0.472 0.825 0.291339;
14, 103 kickdrum 0.251969 0.958 0.261 0.395 0.68 0.4 0.104 0.411 0.927
0.482 0.472 0.825 0.291339;
15, 103 kickdrum 0.251969 0.958 0.261 0.395 0.68 0.4 0.104 0.411 0.927
0.482 0.472 0.825 0.291339;
16, 0 kickdrum 0.251969 0.958 0.261 0.395 0.68 0.4 0.104 0.411 0.927
0.482 0.472 0.825 0.291339;
17, 103 kickdrum 0.251969 0.958 0.261 0.395 0.68 0.4 0.104 0.411 0.927
0.482 0.472 0.825 0.291339;
18, 103 kickdrum 0.251969 0.958 0.261 0.395 0.68 0.4 0.104 0.411 0.927
0.482 0.472 0.825 0.291339;
19, 103 kickdrum 0.251969 0.958 0.261 0.395 0.68 0.4 0.104 0.411 0.927
0.482 0.472 0.825 0.291339;
20, 103 kickdrum 0.251969 0.958 0.261 0.395 0.68 0.4 0.104 0.411 0.927
0.482 0.472 0.825 0.291339;
21, 103 kickdrum 0.251969 0.958 0.261 0.395 0.68 0.4 0.104 0.411 0.927
0.482 0.472 0.825 0.291339;
22, 103 kickdrum 0.251969 0.958 0.261 0.395 0.68 0.4 0.104 0.411 0.927
0.482 0.472 0.825 0.291339;
23, 103 kickdrum 0.251969 0.958 0.261 0.395 0.68 0.4 0.104 0.411 0.927
0.482 0.472 0.825 0.291339;
24, 103 kickdrum 0.251969 0.958 0.261 0.395 0.68 0.4 0.104 0.411 0.927
0.482 0.472 0.825 0.291339;
25, 103 kickdrum 0.251969 0.958 0.261 0.395 0.68 0.4 0.104 0.411 0.927
0.482 0.472 0.825 0.291339;
26, 103 kickdrum 0.251969 0.958 0.261 0.395 0.68 0.4 0.104 0.411 0.927
0.482 0.472 0.825 0.291339;
27, 103 kickdrum 0.251969 0.958 0.261 0.395 0.68 0.4 0.104 0.411 0.927
0.482 0.472 0.825 0.291339;
28, 103 kickdrum 0.251969 0.958 0.261 0.395 0.68 0.4 0.104 0.411 0.927
0.482 0.472 0.825 0.291339;
29, 103 kickdrum 0.251969 0.958 0.261 0.395 0.68 0.4 0.104 0.411 0.927
0.482 0.472 0.825 0.291339;
30, 103 kickdrum 0.251969 0.958 0.261 0.395 0.68 0.4 0.104 0.411 0.927
0.482 0.472 0.825 0.291339;
31, 103 bucketbell 0.56 0.054 0.352 0.413 0.638 0.785 0.722 0.995
0.761 0.309 0.057 0.69 0.19685;
32, 0 kick-drums 0.0711702 0.957979 0.175851 0.395012 0.68 0.399976
0.104068 0.411017 0.926949 0.482034 0.472034 0.824915 0 0;
33, 103 kickdrum 0.251969 0.958 0.261 0.395 0.68 0.4 0.104 0.411 0.927
0.482 0.472 0.825 0.291339;
34, 103 kickdrum 0.251969 0.958 0.261 0.395 0.68 0.4 0.104 0.411 0.927
0.482 0.472 0.825 0.291339;
35, 0 trent35 0.566489 0.798229 0.844492 0.125991 0.406949 0.0890208
0.328983 0.675085 0.473051 0.928983 0.984068 0.933051 0 10.0957;
36, 103 kickdrum 0.251969 0.958 0.261 0.395 0.68 0.4 0.104 0.411 0.927
0.482 0.472 0.825 0.291339;
37, 103 kickdrum 0.251969 0.958 0.261 0.395 0.68 0.4 0.104 0.411 0.927
0.482 0.472 0.825 0.291339;
38, 103 kickdrum 0.251969 0.958 0.261 0.395 0.68 0.4 0.104 0.411 0.927
0.482 0.472 0.825 0.291339;
39, 103 kickdrum 0.251969 0.958 0.261 0.395 0.68 0.4 0.104 0.411 0.927
0.482 0.472 0.825 0.291339;
40, 103 kickdrum 0.251969 0.958 0.261 0.395 0.68 0.4 0.104 0.411 0.927
0.482 0.472 0.825 0.291339;
41, 103 kickdrum 0.251969 0.958 0.261 0.395 0.68 0.4 0.104 0.411 0.927
0.482 0.472 0.825 0.291339;
42, 103 kickdrum 0.251969 0.958 0.261 0.395 0.68 0.4 0.104 0.411 0.927
0.482 0.472 0.825 0.291339;
43, 103 kickdrum 0.251969 0.958 0.261 0.395 0.68 0.4 0.104 0.411 0.927
0.482 0.472 0.825 0.291339;
44, 103 kickdrum 0.251969 0.958 0.261 0.395 0.68 0.4 0.104 0.411 0.927
0.482 0.472 0.825 0.291339;
45, 103 kickdrum 0.251969 0.958 0.261 0.395 0.68 0.4 0.104 0.411 0.927
0.482 0.472 0.825 0.291339;
46, 103 kickdrum 0.251969 0.958 0.261 0.395 0.68 0.4 0.104 0.411 0.927
0.482 0.472 0.825 0.291339;
47, 103 kickdrum 0.251969 0.958 0.261 0.395 0.68 0.4 0.104 0.411 0.927
0.482 0.472 0.825 0.291339;
48, 103 kickdrum 0.251969 0.958 0.261 0.395 0.68 0.4 0.104 0.411 0.927
0.482 0.472 0.825 0.291339;
49, 103 kickdrum 0.251969 0.958 0.261 0.395 0.68 0.4 0.104 0.411 0.927
0.482 0.472 0.825 0.291339;
50, 103 kickdrum 0.251969 0.958 0.261 0.395 0.68 0.4 0.104 0.411 0.927
0.482 0.472 0.825 0.291339;
51, 103 kickdrum 0.251969 0.958 0.261 0.395 0.68 0.4 0.104 0.411 0.927
0.482 0.472 0.825 0.291339;
52, 103 kickdrum 0.251969 0.958 0.261 0.395 0.68 0.4 0.104 0.411 0.927
0.482 0.472 0.825 0.291339;
53, 103 kickdrum 0.251969 0.958 0.261 0.395 0.68 0.4 0.104 0.411 0.927
0.482 0.472 0.825 0.291339;
54, 103 kickdrum 0.251969 0.958 0.261 0.395 0.68 0.4 0.104 0.411 0.927
0.482 0.472 0.825 0.291339;
55, 103 kickdrum 0.251969 0.958 0.261 0.395 0.68 0.4 0.104 0.411 0.927
0.482 0.472 0.825 0.291339;
56, 103 kickdrum 0.251969 0.958 0.261 0.395 0.68 0.4 0.104 0.411 0.927
0.482 0.472 0.825 0.291339;
57, 103 kickdrum 0.251969 0.958 0.261 0.395 0.68 0.4 0.104 0.411 0.927
0.482 0.472 0.825 0.291339;
58, 103 kickdrum 0.251969 0.958 0.261 0.395 0.68 0.4 0.104 0.411 0.927
0.482 0.472 0.825 0.291339;
59, 103 kickdrum 0.251969 0.958 0.261 0.395 0.68 0.4 0.104 0.411 0.927
0.482 0.472 0.825 0.291339;
60, 103 kickdrum 0.251969 0.958 0.261 0.395 0.68 0.4 0.104 0.411 0.927
0.482 0.472 0.825 0.291339;
61, 103 kickdrum 0.251969 0.958 0.261 0.395 0.68 0.4 0.104 0.411 0.927
0.482 0.472 0.825 0.291339;
62, 103 kickdrum 0.251969 0.958 0.261 0.395 0.68 0.4 0.104 0.411 0.927
0.482 0.472 0.825 0.291339;
63, 103 kickdrum 0.251969 0.958 0.261 0.395 0.68 0.4 0.104 0.411 0.927
0.482 0.472 0.825 0.291339;
64, 103 kickdrum 0.251969 0.958 0.261 0.395 0.68 0.4 0.104 0.411 0.927
0.482 0.472 0.825 0.291339;
65, 103 kickdrum 0.251969 0.958 0.261 0.395 0.68 0.4 0.104 0.411 0.927
0.482 0.472 0.825 0.291339;
66, 103 kickdrum 0.251969 0.958 0.261 0.395 0.68 0.4 0.104 0.411 0.927
0.482 0.472 0.825 0.291339;
67, 103 kickdrum 0.251969 0.958 0.261 0.395 0.68 0.4 0.104 0.411 0.927
0.482 0.472 0.825 0.291339;
68, 103 kickdrum 0.251969 0.958 0.261 0.395 0.68 0.4 0.104 0.411 0.927
0.482 0.472 0.825 0.291339;
69, 103 kickdrum 0.251969 0.958 0.261 0.395 0.68 0.4 0.104 0.411 0.927
0.482 0.472 0.825 0.291339;
