0, 0.25001 0.31668 0.450019 0.550023 0.366682 0.483354 0.63336 0.766699
0.766699 0.56669 0.366682 0.333347 0.183341 0.200008 0.183341 0.166674
;
1, 0 0 0 0 0.350015 0.266678 0.25001 0 0 0.0833368 0.133339 0.183341
0.0666695 -0.0333347 0.0166674 0.150006;
2, 0 0 0 0 0 0 0 0 0 0 0 0 0 0 0 0;
3, 0 0 0 0 0 0 0 0 0 0 0 0 0 0 0 0;
